{
    "collectionTypes" : [
        {"name": "CorporateAccountCollection", "description": "Corporate account collection", "dateField": "EntityLastChangedOn", "startDate": "2021-01-01"},
        {"name": "ContactCollection", "description": "Contact collection", "dateField": "ChangedOn", "startDate": "2021-01-02"},
        {"name": "LeadCollection", "description": "Lead collection", "dateField": "EntityLastChangedOn", "startDate": "2021-01-03"},
        {"name": "BusinessPartnerRelationshipCollection", "description": "Business partner relationship collection", "dateField": "EntityLastChangedOn", "startDate": "2021-01-04"},
        {"name": "TasksCollection", "description": "Tasks collection", "dateField": "EntityLastChangedOn", "startDate": "2021-01-05"}
    ]
}